"0","highCorr <- findCorrelation(correlations, cutoff = 0.85)"
"0","X_train <- X_train[ , -highCorr]"
"0","X_test <- X_test[ , -highCorr]"
"0","correlations <- cor(X_train)"
"0","corrplot::corrplot(correlations, order = 'hclust')"
