"0","excludeList03 <- NULL"
"0","for (k in 1:nrow(DATA3)) {"
"0","  if( sum(is.na(DATA3[k,])) != 0 ) {"
"0","    excludeList03 <- c(excludeList03, DATA3[k, 1])"
"0","  }"
"0","}"
"0","'%!in%' <- function(x,y)!('%in%'(x,y))"
"0","DATA4 <- DATA3 %>% filter(date %!in% excludeList03)"
"0","##"
"0","write.csv(DATA4, file = 'tags-curated.csv') # save curated dataset"
"0","##"
